# data file for LTP pattern generator
#
#                     M
#		      u
#		      l
#		      t
#		      i
#		      p
#		      l
#  ICC C     TT     O i
# Bnaa aBBB BTT     r c
# uhll lGGG GYYT TTLb i
# siRR Rooo oPPT TT1i t
# yb21 0321 0103 21At y
#
#
  0000 0000 0000 1100 2
  0000 0000 0000 1000 3530
#
